<svg viewBox="0 0 24 24" xmlns="http://www.w3.org/2000/svg">
    <symbol id="search">
        <path fill="none" d="M0 0h24v24H0V0z"/>
        <path d="M15.5 14h-.79l-.28-.27a6.5 6.5 0 1 0-.7.7l.27.28v.79l4.25 4.25a1.06 1.06 0 0 0 1.49-1.49L15.5 14zm-6 0a4.5 4.5 0 1 1-.01-8.99A4.5 4.5 0 0 1 9.5 14z"/>
    </symbol>
    <symbol id="menu">
        <path fill="none" d="M0 0h24v24H0V0z"/>
        <path d="M4 18h16c.55 0 1-.45 1-1s-.45-1-1-1H4c-.55 0-1 .45-1 1s.45 1 1 1zm0-5h16c.55 0 1-.45 1-1s-.45-1-1-1H4c-.55 0-1 .45-1 1s.45 1 1 1zM3 7c0 .55.45 1 1 1h16c.55 0 1-.45 1-1s-.45-1-1-1H4c-.55 0-1 .45-1 1z"/>
    </symbol>
    <symbol id="arrow">
        <path fill="none" d="M0 0h24v24H0V0z"/>
        <path d="M19 11H7.83l4.88-4.88c.39-.39.39-1.03 0-1.42-.39-.39-1.02-.39-1.41 0l-6.59 6.59c-.39.39-.39 1.02 0 1.41l6.59 6.59c.39.39 1.02.39 1.41 0 .39-.39.39-1.02 0-1.41L7.83 13H19c.55 0 1-.45 1-1s-.45-1-1-1z"/>
    </symbol>
</svg>